{"companyCode":"600031","isPagination":"true","jsonCallBack":"","pageHelp":{"beginPage":1,"cacheSize":1,"data":[{"AShares":841765.6841,"BShares":0,"ROWNUM_":null,"changeReason":"80","changeReasonDesc":"股份注销","realDate":"2019-11-29","seq":9834913,"totalShares":842278.9398},{"AShares":841765.6841,"BShares":0,"ROWNUM_":null,"changeReason":"33","changeReasonDesc":"A股增发上市","realDate":"2019-11-29","seq":9834912,"totalShares":842551.8048},{"AShares":840860.9391,"BShares":0,"ROWNUM_":null,"changeReason":"33","changeReasonDesc":"A股增发上市","realDate":"2019-10-14","seq":9730062,"totalShares":841647.0598},{"AShares":839371.1037,"BShares":0,"ROWNUM_":null,"changeReason":"33","changeReasonDesc":"A股增发上市","realDate":"2019-10-14","seq":9730061,"totalShares":840157.2244},{"AShares":836220.4985,"BShares":0,"ROWNUM_":null,"changeReason":"79","changeReasonDesc":"股权激励股份限售期满","realDate":"2019-09-06","seq":9664744,"totalShares":837006.6192},{"AShares":833789.6481,"BShares":0,"ROWNUM_":null,"changeReason":"80","changeReasonDesc":"股份注销","realDate":"2019-08-01","seq":9582668,"totalShares":837006.6192},{"AShares":833789.6481,"BShares":0,"ROWNUM_":null,"changeReason":"80","changeReasonDesc":"股份注销","realDate":"2019-05-20","seq":9396712,"totalShares":837509.2468},{"AShares":833789.6481,"BShares":0,"ROWNUM_":null,"changeReason":"33","changeReasonDesc":"A股增发上市","realDate":"2019-03-22","seq":9263868,"totalShares":837557.3568},{"AShares":832783.1561,"BShares":0,"ROWNUM_":null,"changeReason":"70","changeReasonDesc":"债转股","realDate":"2019-03-22","seq":9263867,"totalShares":836550.8648},{"AShares":776303.4335,"BShares":0,"ROWNUM_":null,"changeReason":"33","changeReasonDesc":"A股增发上市","realDate":"2019-01-07","seq":9076321,"totalShares":780071.1422},{"AShares":776087.0995,"BShares":0,"ROWNUM_":null,"changeReason":"70","changeReasonDesc":"债转股","realDate":"2019-01-07","seq":9076320,"totalShares":779854.8082},{"AShares":776086.5625,"BShares":0,"ROWNUM_":null,"changeReason":"80","changeReasonDesc":"股份注销","realDate":"2018-12-07","seq":9009459,"totalShares":779854.2712},{"AShares":775609.4247,"BShares":0,"ROWNUM_":null,"changeReason":"33","changeReasonDesc":"A股增发上市","realDate":"2018-10-11","seq":8859816,"totalShares":779459.8334},{"AShares":770017.9964,"BShares":0,"ROWNUM_":null,"changeReason":"70","changeReasonDesc":"债转股","realDate":"2018-10-11","seq":8859815,"totalShares":773868.4051},{"AShares":774171.3952,"BShares":0,"ROWNUM_":null,"changeReason":"70","changeReasonDesc":"债转股","realDate":"2018-08-15","seq":8732589,"totalShares":778021.8039},{"AShares":770011.7531,"BShares":0,"ROWNUM_":null,"changeReason":"33","changeReasonDesc":"A股增发上市","realDate":"2018-07-05","seq":8639007,"totalShares":773862.1618},{"AShares":766836.54,"BShares":0,"ROWNUM_":null,"changeReason":"70","changeReasonDesc":"债转股","realDate":"2018-07-05","seq":8639006,"totalShares":770686.9487},{"AShares":766836.5132,"BShares":0,"ROWNUM_":null,"changeReason":"79","changeReasonDesc":"股权激励股份限售期满","realDate":"2018-06-20","seq":8601603,"totalShares":770686.9219},{"AShares":764693.1553,"BShares":0,"ROWNUM_":null,"changeReason":"80","changeReasonDesc":"股份注销","realDate":"2018-06-07","seq":8570061,"totalShares":770686.9219},{"AShares":764693.1553,"BShares":0,"ROWNUM_":null,"changeReason":"70","changeReasonDesc":"债转股","realDate":"2018-06-07","seq":8570060,"totalShares":770736.1879},{"AShares":764687.9615,"BShares":0,"ROWNUM_":null,"changeReason":"70","changeReasonDesc":"债转股","realDate":"2018-04-09","seq":8419972,"totalShares":770730.9941},{"AShares":764297.3587,"BShares":0,"ROWNUM_":null,"changeReason":"80","changeReasonDesc":"股份注销","realDate":"2018-01-30","seq":8275686,"totalShares":770340.3913},{"AShares":764297.3587,"BShares":0,"ROWNUM_":null,"changeReason":"70","changeReasonDesc":"债转股","realDate":"2018-01-30","seq":8275685,"totalShares":770359.9913},{"AShares":760758.4334,"BShares":0,"ROWNUM_":null,"changeReason":"70","changeReasonDesc":"债转股","realDate":"2018-01-05","seq":8216753,"totalShares":766821.066},{"AShares":759381.4329,"BShares":0,"ROWNUM_":null,"changeReason":"33","changeReasonDesc":"A股增发上市","realDate":"2017-12-05","seq":8138595,"totalShares":765444.0655},{"AShares":759381.4329,"BShares":0,"ROWNUM_":null,"changeReason":"70","changeReasonDesc":"债转股","realDate":"2017-12-05","seq":8138594,"totalShares":764362.0792},{"AShares":759377.9211,"BShares":0,"ROWNUM_":null,"changeReason":"70","changeReasonDesc":"债转股","realDate":"2017-10-18","seq":8022653,"totalShares":764358.5674},{"AShares":759377.8005,"BShares":0,"ROWNUM_":null,"changeReason":"70","changeReasonDesc":"债转股","realDate":"2017-10-12","seq":8010402,"totalShares":764358.4468},{"AShares":759377.2506,"BShares":0,"ROWNUM_":null,"changeReason":"80","changeReasonDesc":"股份注销","realDate":"2017-09-01","seq":7941322,"totalShares":764357.8969},{"AShares":759376.8615,"BShares":0,"ROWNUM_":null,"changeReason":"70","changeReasonDesc":"债转股","realDate":"2017-08-23","seq":7921220,"totalShares":765798.7078},{"AShares":759373.7652,"BShares":0,"ROWNUM_":null,"changeReason":"70","changeReasonDesc":"债转股","realDate":"2017-07-06","seq":7823049,"totalShares":765795.6115},{"AShares":759373.3498,"BShares":0,"ROWNUM_":null,"changeReason":"70","changeReasonDesc":"债转股","realDate":"2017-04-10","seq":7665902,"totalShares":765795.1961},{"AShares":759372.7873,"BShares":0,"ROWNUM_":null,"changeReason":"33","changeReasonDesc":"A股增发上市","realDate":"2017-01-09","seq":7517249,"totalShares":765794.6336},{"AShares":759372.7873,"BShares":0,"ROWNUM_":null,"changeReason":"70","changeReasonDesc":"债转股","realDate":"2017-01-06","seq":7513682,"totalShares":761086.8523},{"AShares":759372.0397,"BShares":0,"ROWNUM_":null,"changeReason":"70","changeReasonDesc":"债转股","realDate":"2016-10-13","seq":7354020,"totalShares":761086.1047},{"AShares":759371.666,"BShares":0,"ROWNUM_":null,"changeReason":"80","changeReasonDesc":"股份注销","realDate":"2016-08-22","seq":7280000,"totalShares":761085.731},{"AShares":759370.6137,"BShares":0,"ROWNUM_":null,"changeReason":"33","changeReasonDesc":"A股增发上市","realDate":"2013-02-05","seq":5403844,"totalShares":761650.4037},{"AShares":759370.6137,"BShares":0,"ROWNUM_":null,"changeReason":"77","changeReasonDesc":"有限售条件流通股上市","realDate":"2013-01-28","seq":5392390,"totalShares":759370.6137},{"AShares":703080,"BShares":0,"ROWNUM_":null,"changeReason":"51","changeReasonDesc":"送股","realDate":"2011-04-25","seq":4506634,"totalShares":759370.6137},{"AShares":468720,"BShares":0,"ROWNUM_":null,"changeReason":"51","changeReasonDesc":"送股","realDate":"2010-10-25","seq":4272098,"totalShares":506247.0758},{"AShares":223200,"BShares":0,"ROWNUM_":null,"changeReason":"51","changeReasonDesc":"送股","realDate":"2010-06-25","seq":4132795,"totalShares":241070.0361},{"AShares":148800,"BShares":0,"ROWNUM_":null,"changeReason":"33","changeReasonDesc":"A股增发上市","realDate":"2010-02-04","seq":3949799,"totalShares":160713.3574},{"AShares":148800,"BShares":0,"ROWNUM_":null,"changeReason":"69","changeReasonDesc":"战略投资人配售上市","realDate":"2008-08-18","seq":3276126,"totalShares":148800},{"AShares":144000,"BShares":0,"ROWNUM_":null,"changeReason":"51","changeReasonDesc":"送股","realDate":"2008-07-11","seq":3228345,"totalShares":148800},{"AShares":96000,"BShares":0,"ROWNUM_":null,"changeReason":"74","changeReasonDesc":"股权分置股份限售期满","realDate":"2008-06-17","seq":3195371,"totalShares":99200},{"AShares":44187.3812,"BShares":0,"ROWNUM_":null,"changeReason":"33","changeReasonDesc":"A股增发上市","realDate":"2007-08-23","seq":2818616,"totalShares":99200},{"AShares":44187.3812,"BShares":0,"ROWNUM_":null,"changeReason":"74","changeReasonDesc":"股权分置股份限售期满","realDate":"2007-06-25","seq":2733963,"totalShares":96000},{"AShares":34587.3812,"BShares":0,"ROWNUM_":null,"changeReason":"51","changeReasonDesc":"送股","realDate":"2007-04-24","seq":2656176,"totalShares":96000},{"AShares":17293.6906,"BShares":0,"ROWNUM_":null,"changeReason":"74","changeReasonDesc":"股权分置股份限售期满","realDate":"2006-06-19","seq":2230242,"totalShares":48000},{"AShares":16200,"BShares":0,"ROWNUM_":null,"changeReason":"51","changeReasonDesc":"送股","realDate":"2005-07-01","seq":1771871,"totalShares":48000}],"endDate":null,"endPage":5,"objectResult":null,"pageCount":2,"pageNo":1,"pageSize":50,"searchDate":null,"sort":null,"startDate":null,"total":52},"result":[{"AShares":841765.6841,"BShares":0,"ROWNUM_":null,"changeReason":"80","changeReasonDesc":"股份注销","realDate":"2019-11-29","seq":9834913,"totalShares":842278.9398},{"AShares":841765.6841,"BShares":0,"ROWNUM_":null,"changeReason":"33","changeReasonDesc":"A股增发上市","realDate":"2019-11-29","seq":9834912,"totalShares":842551.8048},{"AShares":840860.9391,"BShares":0,"ROWNUM_":null,"changeReason":"33","changeReasonDesc":"A股增发上市","realDate":"2019-10-14","seq":9730062,"totalShares":841647.0598},{"AShares":839371.1037,"BShares":0,"ROWNUM_":null,"changeReason":"33","changeReasonDesc":"A股增发上市","realDate":"2019-10-14","seq":9730061,"totalShares":840157.2244},{"AShares":836220.4985,"BShares":0,"ROWNUM_":null,"changeReason":"79","changeReasonDesc":"股权激励股份限售期满","realDate":"2019-09-06","seq":9664744,"totalShares":837006.6192},{"AShares":833789.6481,"BShares":0,"ROWNUM_":null,"changeReason":"80","changeReasonDesc":"股份注销","realDate":"2019-08-01","seq":9582668,"totalShares":837006.6192},{"AShares":833789.6481,"BShares":0,"ROWNUM_":null,"changeReason":"80","changeReasonDesc":"股份注销","realDate":"2019-05-20","seq":9396712,"totalShares":837509.2468},{"AShares":833789.6481,"BShares":0,"ROWNUM_":null,"changeReason":"33","changeReasonDesc":"A股增发上市","realDate":"2019-03-22","seq":9263868,"totalShares":837557.3568},{"AShares":832783.1561,"BShares":0,"ROWNUM_":null,"changeReason":"70","changeReasonDesc":"债转股","realDate":"2019-03-22","seq":9263867,"totalShares":836550.8648},{"AShares":776303.4335,"BShares":0,"ROWNUM_":null,"changeReason":"33","changeReasonDesc":"A股增发上市","realDate":"2019-01-07","seq":9076321,"totalShares":780071.1422},{"AShares":776087.0995,"BShares":0,"ROWNUM_":null,"changeReason":"70","changeReasonDesc":"债转股","realDate":"2019-01-07","seq":9076320,"totalShares":779854.8082},{"AShares":776086.5625,"BShares":0,"ROWNUM_":null,"changeReason":"80","changeReasonDesc":"股份注销","realDate":"2018-12-07","seq":9009459,"totalShares":779854.2712},{"AShares":775609.4247,"BShares":0,"ROWNUM_":null,"changeReason":"33","changeReasonDesc":"A股增发上市","realDate":"2018-10-11","seq":8859816,"totalShares":779459.8334},{"AShares":770017.9964,"BShares":0,"ROWNUM_":null,"changeReason":"70","changeReasonDesc":"债转股","realDate":"2018-10-11","seq":8859815,"totalShares":773868.4051},{"AShares":774171.3952,"BShares":0,"ROWNUM_":null,"changeReason":"70","changeReasonDesc":"债转股","realDate":"2018-08-15","seq":8732589,"totalShares":778021.8039},{"AShares":770011.7531,"BShares":0,"ROWNUM_":null,"changeReason":"33","changeReasonDesc":"A股增发上市","realDate":"2018-07-05","seq":8639007,"totalShares":773862.1618},{"AShares":766836.54,"BShares":0,"ROWNUM_":null,"changeReason":"70","changeReasonDesc":"债转股","realDate":"2018-07-05","seq":8639006,"totalShares":770686.9487},{"AShares":766836.5132,"BShares":0,"ROWNUM_":null,"changeReason":"79","changeReasonDesc":"股权激励股份限售期满","realDate":"2018-06-20","seq":8601603,"totalShares":770686.9219},{"AShares":764693.1553,"BShares":0,"ROWNUM_":null,"changeReason":"80","changeReasonDesc":"股份注销","realDate":"2018-06-07","seq":8570061,"totalShares":770686.9219},{"AShares":764693.1553,"BShares":0,"ROWNUM_":null,"changeReason":"70","changeReasonDesc":"债转股","realDate":"2018-06-07","seq":8570060,"totalShares":770736.1879},{"AShares":764687.9615,"BShares":0,"ROWNUM_":null,"changeReason":"70","changeReasonDesc":"债转股","realDate":"2018-04-09","seq":8419972,"totalShares":770730.9941},{"AShares":764297.3587,"BShares":0,"ROWNUM_":null,"changeReason":"80","changeReasonDesc":"股份注销","realDate":"2018-01-30","seq":8275686,"totalShares":770340.3913},{"AShares":764297.3587,"BShares":0,"ROWNUM_":null,"changeReason":"70","changeReasonDesc":"债转股","realDate":"2018-01-30","seq":8275685,"totalShares":770359.9913},{"AShares":760758.4334,"BShares":0,"ROWNUM_":null,"changeReason":"70","changeReasonDesc":"债转股","realDate":"2018-01-05","seq":8216753,"totalShares":766821.066},{"AShares":759381.4329,"BShares":0,"ROWNUM_":null,"changeReason":"33","changeReasonDesc":"A股增发上市","realDate":"2017-12-05","seq":8138595,"totalShares":765444.0655},{"AShares":759381.4329,"BShares":0,"ROWNUM_":null,"changeReason":"70","changeReasonDesc":"债转股","realDate":"2017-12-05","seq":8138594,"totalShares":764362.0792},{"AShares":759377.9211,"BShares":0,"ROWNUM_":null,"changeReason":"70","changeReasonDesc":"债转股","realDate":"2017-10-18","seq":8022653,"totalShares":764358.5674},{"AShares":759377.8005,"BShares":0,"ROWNUM_":null,"changeReason":"70","changeReasonDesc":"债转股","realDate":"2017-10-12","seq":8010402,"totalShares":764358.4468},{"AShares":759377.2506,"BShares":0,"ROWNUM_":null,"changeReason":"80","changeReasonDesc":"股份注销","realDate":"2017-09-01","seq":7941322,"totalShares":764357.8969},{"AShares":759376.8615,"BShares":0,"ROWNUM_":null,"changeReason":"70","changeReasonDesc":"债转股","realDate":"2017-08-23","seq":7921220,"totalShares":765798.7078},{"AShares":759373.7652,"BShares":0,"ROWNUM_":null,"changeReason":"70","changeReasonDesc":"债转股","realDate":"2017-07-06","seq":7823049,"totalShares":765795.6115},{"AShares":759373.3498,"BShares":0,"ROWNUM_":null,"changeReason":"70","changeReasonDesc":"债转股","realDate":"2017-04-10","seq":7665902,"totalShares":765795.1961},{"AShares":759372.7873,"BShares":0,"ROWNUM_":null,"changeReason":"33","changeReasonDesc":"A股增发上市","realDate":"2017-01-09","seq":7517249,"totalShares":765794.6336},{"AShares":759372.7873,"BShares":0,"ROWNUM_":null,"changeReason":"70","changeReasonDesc":"债转股","realDate":"2017-01-06","seq":7513682,"totalShares":761086.8523},{"AShares":759372.0397,"BShares":0,"ROWNUM_":null,"changeReason":"70","changeReasonDesc":"债转股","realDate":"2016-10-13","seq":7354020,"totalShares":761086.1047},{"AShares":759371.666,"BShares":0,"ROWNUM_":null,"changeReason":"80","changeReasonDesc":"股份注销","realDate":"2016-08-22","seq":7280000,"totalShares":761085.731},{"AShares":759370.6137,"BShares":0,"ROWNUM_":null,"changeReason":"33","changeReasonDesc":"A股增发上市","realDate":"2013-02-05","seq":5403844,"totalShares":761650.4037},{"AShares":759370.6137,"BShares":0,"ROWNUM_":null,"changeReason":"77","changeReasonDesc":"有限售条件流通股上市","realDate":"2013-01-28","seq":5392390,"totalShares":759370.6137},{"AShares":703080,"BShares":0,"ROWNUM_":null,"changeReason":"51","changeReasonDesc":"送股","realDate":"2011-04-25","seq":4506634,"totalShares":759370.6137},{"AShares":468720,"BShares":0,"ROWNUM_":null,"changeReason":"51","changeReasonDesc":"送股","realDate":"2010-10-25","seq":4272098,"totalShares":506247.0758},{"AShares":223200,"BShares":0,"ROWNUM_":null,"changeReason":"51","changeReasonDesc":"送股","realDate":"2010-06-25","seq":4132795,"totalShares":241070.0361},{"AShares":148800,"BShares":0,"ROWNUM_":null,"changeReason":"33","changeReasonDesc":"A股增发上市","realDate":"2010-02-04","seq":3949799,"totalShares":160713.3574},{"AShares":148800,"BShares":0,"ROWNUM_":null,"changeReason":"69","changeReasonDesc":"战略投资人配售上市","realDate":"2008-08-18","seq":3276126,"totalShares":148800},{"AShares":144000,"BShares":0,"ROWNUM_":null,"changeReason":"51","changeReasonDesc":"送股","realDate":"2008-07-11","seq":3228345,"totalShares":148800},{"AShares":96000,"BShares":0,"ROWNUM_":null,"changeReason":"74","changeReasonDesc":"股权分置股份限售期满","realDate":"2008-06-17","seq":3195371,"totalShares":99200},{"AShares":44187.3812,"BShares":0,"ROWNUM_":null,"changeReason":"33","changeReasonDesc":"A股增发上市","realDate":"2007-08-23","seq":2818616,"totalShares":99200},{"AShares":44187.3812,"BShares":0,"ROWNUM_":null,"changeReason":"74","changeReasonDesc":"股权分置股份限售期满","realDate":"2007-06-25","seq":2733963,"totalShares":96000},{"AShares":34587.3812,"BShares":0,"ROWNUM_":null,"changeReason":"51","changeReasonDesc":"送股","realDate":"2007-04-24","seq":2656176,"totalShares":96000},{"AShares":17293.6906,"BShares":0,"ROWNUM_":null,"changeReason":"74","changeReasonDesc":"股权分置股份限售期满","realDate":"2006-06-19","seq":2230242,"totalShares":48000},{"AShares":16200,"BShares":0,"ROWNUM_":null,"changeReason":"51","changeReasonDesc":"送股","realDate":"2005-07-01","seq":1771871,"totalShares":48000}],"seq":""}