{"companyCode":"600016","isPagination":"true","jsonCallBack":"","pageHelp":{"beginPage":1,"cacheSize":1,"data":[{"AShares":3546212.3213,"BShares":0,"ROWNUM_":null,"changeReason":"51","changeReasonDesc":"送股","realDate":"2018-07-06","seq":8642260,"totalShares":4378241.8502},{"AShares":2955176.9344,"BShares":0,"ROWNUM_":null,"changeReason":"51","changeReasonDesc":"送股","realDate":"2018-07-05","seq":8639388,"totalShares":3648534.8752},{"AShares":2955176.9344,"BShares":0,"ROWNUM_":null,"changeReason":"70","changeReasonDesc":"债转股","realDate":"2015-06-29","seq":6632654,"totalShares":3648534.8752},{"AShares":2729709.6636,"BShares":0,"ROWNUM_":null,"changeReason":"70","changeReasonDesc":"债转股","realDate":"2015-04-03","seq":6517026,"totalShares":3423067.6044},{"AShares":2721952.3629,"BShares":0,"ROWNUM_":null,"changeReason":"70","changeReasonDesc":"债转股","realDate":"2015-01-07","seq":6397419,"totalShares":3415310.3037},{"AShares":2710607.4764,"BShares":0,"ROWNUM_":null,"changeReason":"70","changeReasonDesc":"债转股","realDate":"2014-10-10","seq":6266177,"totalShares":3403965.4172},{"AShares":2710604.4823,"BShares":0,"ROWNUM_":null,"changeReason":"70","changeReasonDesc":"债转股","realDate":"2014-07-03","seq":6125329,"totalShares":3403962.4231},{"AShares":2710604.3114,"BShares":0,"ROWNUM_":null,"changeReason":"51","changeReasonDesc":"送股","realDate":"2014-06-26","seq":6115688,"totalShares":3403962.2522},{"AShares":2258836.9262,"BShares":0,"ROWNUM_":null,"changeReason":"51","changeReasonDesc":"送股","realDate":"2014-06-25","seq":6112812,"totalShares":2836635.2102},{"AShares":2258829.9344,"BShares":0,"ROWNUM_":null,"changeReason":"70","changeReasonDesc":"债转股","realDate":"2014-04-04","seq":5983262,"totalShares":2836628.2184},{"AShares":2258820.9933,"BShares":0,"ROWNUM_":null,"changeReason":"70","changeReasonDesc":"债转股","realDate":"2014-01-06","seq":5849959,"totalShares":2836619.2773},{"AShares":2258819.2913,"BShares":0,"ROWNUM_":null,"changeReason":"70","changeReasonDesc":"债转股","realDate":"2013-10-10","seq":5723193,"totalShares":2836617.5753},{"AShares":2258760.2387,"BShares":0,"ROWNUM_":null,"changeReason":"61","changeReasonDesc":"其他股本变动","realDate":"2012-04-06","seq":4969328,"totalShares":2836558.5227},{"AShares":2258760.2387,"BShares":0,"ROWNUM_":null,"changeReason":"51","changeReasonDesc":"送股","realDate":"2010-07-16","seq":4159929,"totalShares":2657364.9587},{"AShares":1882300.1989,"BShares":0,"ROWNUM_":null,"changeReason":"61","changeReasonDesc":"其他股本变动","realDate":"2009-11-27","seq":3855912,"totalShares":2214470.7989},{"AShares":1882300.1989,"BShares":0,"ROWNUM_":null,"changeReason":"77","changeReasonDesc":"有限售条件流通股上市","realDate":"2009-08-24","seq":3736267,"totalShares":1882300.1989},{"AShares":1789480.1989,"BShares":0,"ROWNUM_":null,"changeReason":"71","changeReasonDesc":"一般法人配售上市","realDate":"2008-07-30","seq":3250761,"totalShares":1882300.1989},{"AShares":1784839.1989,"BShares":0,"ROWNUM_":null,"changeReason":"77","changeReasonDesc":"有限售条件流通股上市","realDate":"2008-06-23","seq":3202152,"totalShares":1882300.1989},{"AShares":1572900.1989,"BShares":0,"ROWNUM_":null,"changeReason":"51","changeReasonDesc":"送股","realDate":"2008-04-08","seq":3109033,"totalShares":1882300.1989},{"AShares":1209923.2299,"BShares":0,"ROWNUM_":null,"changeReason":"70","changeReasonDesc":"债转股","realDate":"2008-02-29","seq":3056074,"totalShares":1447923.2299},{"AShares":1209918.2515,"BShares":0,"ROWNUM_":null,"changeReason":"70","changeReasonDesc":"债转股","realDate":"2008-01-04","seq":2990372,"totalShares":1447918.2515},{"AShares":1209909.0468,"BShares":0,"ROWNUM_":null,"changeReason":"74","changeReasonDesc":"股权分置股份限售期满","realDate":"2007-10-26","seq":2898350,"totalShares":1447909.0468},{"AShares":731652.8626,"BShares":0,"ROWNUM_":null,"changeReason":"70","changeReasonDesc":"债转股","realDate":"2007-10-10","seq":2874266,"totalShares":1447909.0468},{"AShares":731651.8586,"BShares":0,"ROWNUM_":null,"changeReason":"70","changeReasonDesc":"债转股","realDate":"2007-07-04","seq":2750814,"totalShares":1447908.0428},{"AShares":731651.8586,"BShares":0,"ROWNUM_":null,"changeReason":"33","changeReasonDesc":"A股增发上市","realDate":"2007-06-28","seq":2742278,"totalShares":1447908.0428},{"AShares":731650.7708,"BShares":0,"ROWNUM_":null,"changeReason":"51","changeReasonDesc":"送股","realDate":"2007-06-12","seq":2716713,"totalShares":1209906.955},{"AShares":611362.8269,"BShares":0,"ROWNUM_":null,"changeReason":"70","changeReasonDesc":"债转股","realDate":"2007-04-04","seq":2625206,"totalShares":1016720.8933},{"AShares":611353.1446,"BShares":0,"ROWNUM_":null,"changeReason":"70","changeReasonDesc":"债转股","realDate":"2007-01-08","seq":2509436,"totalShares":1016711.211},{"AShares":611333.1108,"BShares":0,"ROWNUM_":null,"changeReason":"74","changeReasonDesc":"股权分置股份限售期满","realDate":"2006-10-26","seq":2411375,"totalShares":1016691.1772},{"AShares":408297.2925,"BShares":0,"ROWNUM_":null,"changeReason":"70","changeReasonDesc":"债转股","realDate":"2006-10-11","seq":2390364,"totalShares":1016691.1772},{"AShares":408281.0262,"BShares":0,"ROWNUM_":null,"changeReason":"70","changeReasonDesc":"债转股","realDate":"2006-07-05","seq":2254360,"totalShares":1016674.9109},{"AShares":408192.7182,"BShares":0,"ROWNUM_":null,"changeReason":"51","changeReasonDesc":"送股","realDate":"2006-04-18","seq":2159527,"totalShares":1016586.6029},{"AShares":291551.9998,"BShares":0,"ROWNUM_":null,"changeReason":"70","changeReasonDesc":"债转股","realDate":"2006-04-05","seq":2138576,"totalShares":726119.0603},{"AShares":291310.8108,"BShares":0,"ROWNUM_":null,"changeReason":"70","changeReasonDesc":"债转股","realDate":"2006-01-09","seq":2019152,"totalShares":725877.8713},{"AShares":291292.1807,"BShares":0,"ROWNUM_":null,"changeReason":"73","changeReasonDesc":"股权分置","realDate":"2005-10-26","seq":1916840,"totalShares":725859.2412},{"AShares":223934.2863,"BShares":0,"ROWNUM_":null,"changeReason":"51","changeReasonDesc":"送股","realDate":"2005-10-26","seq":1916839,"totalShares":725859.2412},{"AShares":193882.499,"BShares":0,"ROWNUM_":null,"changeReason":"70","changeReasonDesc":"债转股","realDate":"2005-10-12","seq":1898378,"totalShares":628449.5595},{"AShares":187636.4325,"BShares":0,"ROWNUM_":null,"changeReason":"70","changeReasonDesc":"债转股","realDate":"2005-07-05","seq":1775876,"totalShares":622203.493},{"AShares":187599.7516,"BShares":0,"ROWNUM_":null,"changeReason":"51","changeReasonDesc":"送股","realDate":"2005-04-19","seq":1684411,"totalShares":622166.8121},{"AShares":156332.9668,"BShares":0,"ROWNUM_":null,"changeReason":"70","changeReasonDesc":"债转股","realDate":"2005-04-05","seq":1655942,"totalShares":518472.1839},{"AShares":156305.5024,"BShares":0,"ROWNUM_":null,"changeReason":"70","changeReasonDesc":"债转股","realDate":"2005-01-06","seq":1559515,"totalShares":518444.7195},{"AShares":156305.3785,"BShares":0,"ROWNUM_":null,"changeReason":"70","changeReasonDesc":"债转股","realDate":"2004-10-12","seq":1448129,"totalShares":518444.5956},{"AShares":156020.787,"BShares":0,"ROWNUM_":null,"changeReason":"70","changeReasonDesc":"债转股","realDate":"2004-07-05","seq":1331459,"totalShares":518160.0041},{"AShares":155539.1591,"BShares":0,"ROWNUM_":null,"changeReason":"51","changeReasonDesc":"送股","realDate":"2004-04-20","seq":1224529,"totalShares":517678.3762},{"AShares":114321.454,"BShares":0,"ROWNUM_":null,"changeReason":"70","changeReasonDesc":"债转股","realDate":"2004-04-05","seq":1206689,"totalShares":382572.7259},{"AShares":102460.5339,"BShares":0,"ROWNUM_":null,"changeReason":"70","changeReasonDesc":"债转股","realDate":"2004-01-16","seq":1122847,"totalShares":370711.8058},{"AShares":94274.6649,"BShares":0,"ROWNUM_":null,"changeReason":"70","changeReasonDesc":"债转股","realDate":"2004-01-06","seq":1110147,"totalShares":362525.9368},{"AShares":70829.3443,"BShares":0,"ROWNUM_":null,"changeReason":"70","changeReasonDesc":"债转股","realDate":"2003-10-10","seq":998815,"totalShares":339080.6162},{"AShares":68022.5,"BShares":0,"ROWNUM_":null,"changeReason":"51","changeReasonDesc":"送股","realDate":"2003-04-15","seq":808818,"totalShares":336273.7719},{"AShares":52325,"BShares":0,"ROWNUM_":null,"changeReason":"51","changeReasonDesc":"送股","realDate":"2002-06-20","seq":505646,"totalShares":258672.1322}],"endDate":null,"endPage":5,"objectResult":null,"pageCount":2,"pageNo":1,"pageSize":50,"searchDate":null,"sort":null,"startDate":null,"total":52},"result":[{"AShares":3546212.3213,"BShares":0,"ROWNUM_":null,"changeReason":"51","changeReasonDesc":"送股","realDate":"2018-07-06","seq":8642260,"totalShares":4378241.8502},{"AShares":2955176.9344,"BShares":0,"ROWNUM_":null,"changeReason":"51","changeReasonDesc":"送股","realDate":"2018-07-05","seq":8639388,"totalShares":3648534.8752},{"AShares":2955176.9344,"BShares":0,"ROWNUM_":null,"changeReason":"70","changeReasonDesc":"债转股","realDate":"2015-06-29","seq":6632654,"totalShares":3648534.8752},{"AShares":2729709.6636,"BShares":0,"ROWNUM_":null,"changeReason":"70","changeReasonDesc":"债转股","realDate":"2015-04-03","seq":6517026,"totalShares":3423067.6044},{"AShares":2721952.3629,"BShares":0,"ROWNUM_":null,"changeReason":"70","changeReasonDesc":"债转股","realDate":"2015-01-07","seq":6397419,"totalShares":3415310.3037},{"AShares":2710607.4764,"BShares":0,"ROWNUM_":null,"changeReason":"70","changeReasonDesc":"债转股","realDate":"2014-10-10","seq":6266177,"totalShares":3403965.4172},{"AShares":2710604.4823,"BShares":0,"ROWNUM_":null,"changeReason":"70","changeReasonDesc":"债转股","realDate":"2014-07-03","seq":6125329,"totalShares":3403962.4231},{"AShares":2710604.3114,"BShares":0,"ROWNUM_":null,"changeReason":"51","changeReasonDesc":"送股","realDate":"2014-06-26","seq":6115688,"totalShares":3403962.2522},{"AShares":2258836.9262,"BShares":0,"ROWNUM_":null,"changeReason":"51","changeReasonDesc":"送股","realDate":"2014-06-25","seq":6112812,"totalShares":2836635.2102},{"AShares":2258829.9344,"BShares":0,"ROWNUM_":null,"changeReason":"70","changeReasonDesc":"债转股","realDate":"2014-04-04","seq":5983262,"totalShares":2836628.2184},{"AShares":2258820.9933,"BShares":0,"ROWNUM_":null,"changeReason":"70","changeReasonDesc":"债转股","realDate":"2014-01-06","seq":5849959,"totalShares":2836619.2773},{"AShares":2258819.2913,"BShares":0,"ROWNUM_":null,"changeReason":"70","changeReasonDesc":"债转股","realDate":"2013-10-10","seq":5723193,"totalShares":2836617.5753},{"AShares":2258760.2387,"BShares":0,"ROWNUM_":null,"changeReason":"61","changeReasonDesc":"其他股本变动","realDate":"2012-04-06","seq":4969328,"totalShares":2836558.5227},{"AShares":2258760.2387,"BShares":0,"ROWNUM_":null,"changeReason":"51","changeReasonDesc":"送股","realDate":"2010-07-16","seq":4159929,"totalShares":2657364.9587},{"AShares":1882300.1989,"BShares":0,"ROWNUM_":null,"changeReason":"61","changeReasonDesc":"其他股本变动","realDate":"2009-11-27","seq":3855912,"totalShares":2214470.7989},{"AShares":1882300.1989,"BShares":0,"ROWNUM_":null,"changeReason":"77","changeReasonDesc":"有限售条件流通股上市","realDate":"2009-08-24","seq":3736267,"totalShares":1882300.1989},{"AShares":1789480.1989,"BShares":0,"ROWNUM_":null,"changeReason":"71","changeReasonDesc":"一般法人配售上市","realDate":"2008-07-30","seq":3250761,"totalShares":1882300.1989},{"AShares":1784839.1989,"BShares":0,"ROWNUM_":null,"changeReason":"77","changeReasonDesc":"有限售条件流通股上市","realDate":"2008-06-23","seq":3202152,"totalShares":1882300.1989},{"AShares":1572900.1989,"BShares":0,"ROWNUM_":null,"changeReason":"51","changeReasonDesc":"送股","realDate":"2008-04-08","seq":3109033,"totalShares":1882300.1989},{"AShares":1209923.2299,"BShares":0,"ROWNUM_":null,"changeReason":"70","changeReasonDesc":"债转股","realDate":"2008-02-29","seq":3056074,"totalShares":1447923.2299},{"AShares":1209918.2515,"BShares":0,"ROWNUM_":null,"changeReason":"70","changeReasonDesc":"债转股","realDate":"2008-01-04","seq":2990372,"totalShares":1447918.2515},{"AShares":1209909.0468,"BShares":0,"ROWNUM_":null,"changeReason":"74","changeReasonDesc":"股权分置股份限售期满","realDate":"2007-10-26","seq":2898350,"totalShares":1447909.0468},{"AShares":731652.8626,"BShares":0,"ROWNUM_":null,"changeReason":"70","changeReasonDesc":"债转股","realDate":"2007-10-10","seq":2874266,"totalShares":1447909.0468},{"AShares":731651.8586,"BShares":0,"ROWNUM_":null,"changeReason":"70","changeReasonDesc":"债转股","realDate":"2007-07-04","seq":2750814,"totalShares":1447908.0428},{"AShares":731651.8586,"BShares":0,"ROWNUM_":null,"changeReason":"33","changeReasonDesc":"A股增发上市","realDate":"2007-06-28","seq":2742278,"totalShares":1447908.0428},{"AShares":731650.7708,"BShares":0,"ROWNUM_":null,"changeReason":"51","changeReasonDesc":"送股","realDate":"2007-06-12","seq":2716713,"totalShares":1209906.955},{"AShares":611362.8269,"BShares":0,"ROWNUM_":null,"changeReason":"70","changeReasonDesc":"债转股","realDate":"2007-04-04","seq":2625206,"totalShares":1016720.8933},{"AShares":611353.1446,"BShares":0,"ROWNUM_":null,"changeReason":"70","changeReasonDesc":"债转股","realDate":"2007-01-08","seq":2509436,"totalShares":1016711.211},{"AShares":611333.1108,"BShares":0,"ROWNUM_":null,"changeReason":"74","changeReasonDesc":"股权分置股份限售期满","realDate":"2006-10-26","seq":2411375,"totalShares":1016691.1772},{"AShares":408297.2925,"BShares":0,"ROWNUM_":null,"changeReason":"70","changeReasonDesc":"债转股","realDate":"2006-10-11","seq":2390364,"totalShares":1016691.1772},{"AShares":408281.0262,"BShares":0,"ROWNUM_":null,"changeReason":"70","changeReasonDesc":"债转股","realDate":"2006-07-05","seq":2254360,"totalShares":1016674.9109},{"AShares":408192.7182,"BShares":0,"ROWNUM_":null,"changeReason":"51","changeReasonDesc":"送股","realDate":"2006-04-18","seq":2159527,"totalShares":1016586.6029},{"AShares":291551.9998,"BShares":0,"ROWNUM_":null,"changeReason":"70","changeReasonDesc":"债转股","realDate":"2006-04-05","seq":2138576,"totalShares":726119.0603},{"AShares":291310.8108,"BShares":0,"ROWNUM_":null,"changeReason":"70","changeReasonDesc":"债转股","realDate":"2006-01-09","seq":2019152,"totalShares":725877.8713},{"AShares":291292.1807,"BShares":0,"ROWNUM_":null,"changeReason":"73","changeReasonDesc":"股权分置","realDate":"2005-10-26","seq":1916840,"totalShares":725859.2412},{"AShares":223934.2863,"BShares":0,"ROWNUM_":null,"changeReason":"51","changeReasonDesc":"送股","realDate":"2005-10-26","seq":1916839,"totalShares":725859.2412},{"AShares":193882.499,"BShares":0,"ROWNUM_":null,"changeReason":"70","changeReasonDesc":"债转股","realDate":"2005-10-12","seq":1898378,"totalShares":628449.5595},{"AShares":187636.4325,"BShares":0,"ROWNUM_":null,"changeReason":"70","changeReasonDesc":"债转股","realDate":"2005-07-05","seq":1775876,"totalShares":622203.493},{"AShares":187599.7516,"BShares":0,"ROWNUM_":null,"changeReason":"51","changeReasonDesc":"送股","realDate":"2005-04-19","seq":1684411,"totalShares":622166.8121},{"AShares":156332.9668,"BShares":0,"ROWNUM_":null,"changeReason":"70","changeReasonDesc":"债转股","realDate":"2005-04-05","seq":1655942,"totalShares":518472.1839},{"AShares":156305.5024,"BShares":0,"ROWNUM_":null,"changeReason":"70","changeReasonDesc":"债转股","realDate":"2005-01-06","seq":1559515,"totalShares":518444.7195},{"AShares":156305.3785,"BShares":0,"ROWNUM_":null,"changeReason":"70","changeReasonDesc":"债转股","realDate":"2004-10-12","seq":1448129,"totalShares":518444.5956},{"AShares":156020.787,"BShares":0,"ROWNUM_":null,"changeReason":"70","changeReasonDesc":"债转股","realDate":"2004-07-05","seq":1331459,"totalShares":518160.0041},{"AShares":155539.1591,"BShares":0,"ROWNUM_":null,"changeReason":"51","changeReasonDesc":"送股","realDate":"2004-04-20","seq":1224529,"totalShares":517678.3762},{"AShares":114321.454,"BShares":0,"ROWNUM_":null,"changeReason":"70","changeReasonDesc":"债转股","realDate":"2004-04-05","seq":1206689,"totalShares":382572.7259},{"AShares":102460.5339,"BShares":0,"ROWNUM_":null,"changeReason":"70","changeReasonDesc":"债转股","realDate":"2004-01-16","seq":1122847,"totalShares":370711.8058},{"AShares":94274.6649,"BShares":0,"ROWNUM_":null,"changeReason":"70","changeReasonDesc":"债转股","realDate":"2004-01-06","seq":1110147,"totalShares":362525.9368},{"AShares":70829.3443,"BShares":0,"ROWNUM_":null,"changeReason":"70","changeReasonDesc":"债转股","realDate":"2003-10-10","seq":998815,"totalShares":339080.6162},{"AShares":68022.5,"BShares":0,"ROWNUM_":null,"changeReason":"51","changeReasonDesc":"送股","realDate":"2003-04-15","seq":808818,"totalShares":336273.7719},{"AShares":52325,"BShares":0,"ROWNUM_":null,"changeReason":"51","changeReasonDesc":"送股","realDate":"2002-06-20","seq":505646,"totalShares":258672.1322}],"seq":""}