{"companyCode":"600276","isPagination":"true","jsonCallBack":"","pageHelp":{"beginPage":1,"cacheSize":1,"data":[{"AShares":440391.5003,"BShares":0,"ROWNUM_":null,"changeReason":"80","changeReasonDesc":"股份注销","realDate":"2019-05-31","seq":9426478,"totalShares":442281.4197},{"AShares":440391.5003,"BShares":0,"ROWNUM_":null,"changeReason":"51","changeReasonDesc":"送股","realDate":"2019-03-29","seq":9281753,"totalShares":442303.4469},{"AShares":366992.9169,"BShares":0,"ROWNUM_":null,"changeReason":"51","changeReasonDesc":"送股","realDate":"2019-03-28","seq":9278793,"totalShares":368586.2057},{"AShares":366992.9169,"BShares":0,"ROWNUM_":null,"changeReason":"33","changeReasonDesc":"A股增发上市","realDate":"2019-01-31","seq":9150830,"totalShares":368586.2057},{"AShares":366992.9169,"BShares":0,"ROWNUM_":null,"changeReason":"79","changeReasonDesc":"股权激励股份限售期满","realDate":"2019-01-22","seq":9124548,"totalShares":368207.7149},{"AShares":366194.7949,"BShares":0,"ROWNUM_":null,"changeReason":"80","changeReasonDesc":"股份注销","realDate":"2018-11-06","seq":8926864,"totalShares":368207.7149},{"AShares":366194.7949,"BShares":0,"ROWNUM_":null,"changeReason":"51","changeReasonDesc":"送股","realDate":"2018-05-31","seq":8552965,"totalShares":368244.2449},{"AShares":281688.3038,"BShares":0,"ROWNUM_":null,"changeReason":"51","changeReasonDesc":"送股","realDate":"2018-05-30","seq":8550085,"totalShares":283264.8038},{"AShares":281688.3038,"BShares":0,"ROWNUM_":null,"changeReason":"79","changeReasonDesc":"股权激励股份限售期满","realDate":"2018-01-31","seq":8278658,"totalShares":283264.8038},{"AShares":281630.8521,"BShares":0,"ROWNUM_":null,"changeReason":"33","changeReasonDesc":"A股增发上市","realDate":"2018-01-24","seq":8261788,"totalShares":283264.8038},{"AShares":281630.8521,"BShares":0,"ROWNUM_":null,"changeReason":"80","changeReasonDesc":"股份注销","realDate":"2017-09-25","seq":7987444,"totalShares":281688.3038},{"AShares":281630.8521,"BShares":0,"ROWNUM_":null,"changeReason":"79","changeReasonDesc":"股权激励股份限售期满","realDate":"2017-07-25","seq":7856102,"totalShares":281688.9833},{"AShares":281228.4432,"BShares":0,"ROWNUM_":null,"changeReason":"80","changeReasonDesc":"股份注销","realDate":"2017-06-30","seq":7812664,"totalShares":281688.9833},{"AShares":281228.4432,"BShares":0,"ROWNUM_":null,"changeReason":"51","changeReasonDesc":"送股","realDate":"2017-06-01","seq":7760634,"totalShares":281695.1609},{"AShares":234357.036,"BShares":0,"ROWNUM_":null,"changeReason":"51","changeReasonDesc":"送股","realDate":"2017-05-31","seq":7758049,"totalShares":234745.9674},{"AShares":234357.036,"BShares":0,"ROWNUM_":null,"changeReason":"79","changeReasonDesc":"股权激励股份限售期满","realDate":"2017-01-16","seq":7530545,"totalShares":234745.9674},{"AShares":234309.1596,"BShares":0,"ROWNUM_":null,"changeReason":"80","changeReasonDesc":"股份注销","realDate":"2016-12-08","seq":7462972,"totalShares":234745.9674},{"AShares":234309.1596,"BShares":0,"ROWNUM_":null,"changeReason":"80","changeReasonDesc":"股份注销","realDate":"2016-10-28","seq":7379518,"totalShares":234752.6598},{"AShares":234309.1596,"BShares":0,"ROWNUM_":null,"changeReason":"79","changeReasonDesc":"股权激励股份限售期满","realDate":"2016-07-19","seq":7217393,"totalShares":234776.2891},{"AShares":233960.3311,"BShares":0,"ROWNUM_":null,"changeReason":"51","changeReasonDesc":"送股","realDate":"2016-06-17","seq":7171609,"totalShares":234776.2891},{"AShares":194966.9426,"BShares":0,"ROWNUM_":null,"changeReason":"51","changeReasonDesc":"送股","realDate":"2016-06-16","seq":7168269,"totalShares":195646.9076},{"AShares":194966.9426,"BShares":0,"ROWNUM_":null,"changeReason":"80","changeReasonDesc":"股份注销","realDate":"2016-01-25","seq":6949595,"totalShares":195646.9076},{"AShares":194966.9426,"BShares":0,"ROWNUM_":null,"changeReason":"79","changeReasonDesc":"股权激励股份限售期满","realDate":"2016-01-21","seq":6945194,"totalShares":195649.9106},{"AShares":194913.7466,"BShares":0,"ROWNUM_":null,"changeReason":"79","changeReasonDesc":"股权激励股份限售期满","realDate":"2015-07-17","seq":6665880,"totalShares":195649.9106},{"AShares":194511.6306,"BShares":0,"ROWNUM_":null,"changeReason":"51","changeReasonDesc":"送股","realDate":"2015-06-16","seq":6617476,"totalShares":195649.9106},{"AShares":149624.3312,"BShares":0,"ROWNUM_":null,"changeReason":"51","changeReasonDesc":"送股","realDate":"2015-06-15","seq":6615316,"totalShares":150499.9312},{"AShares":149624.3312,"BShares":0,"ROWNUM_":null,"changeReason":"80","changeReasonDesc":"股份注销","realDate":"2015-05-28","seq":6589798,"totalShares":150499.9312},{"AShares":149624.3312,"BShares":0,"ROWNUM_":null,"changeReason":"33","changeReasonDesc":"A股增发上市","realDate":"2015-01-20","seq":6417241,"totalShares":150501.5812},{"AShares":149624.3312,"BShares":0,"ROWNUM_":null,"changeReason":"33","changeReasonDesc":"A股增发上市","realDate":"2014-07-21","seq":6149281,"totalShares":150399.2812},{"AShares":149624.3312,"BShares":0,"ROWNUM_":null,"changeReason":"51","changeReasonDesc":"送股","realDate":"2014-05-16","seq":6047433,"totalShares":149624.3312},{"AShares":136022.1193,"BShares":0,"ROWNUM_":null,"changeReason":"51","changeReasonDesc":"送股","realDate":"2014-05-15","seq":6045513,"totalShares":136022.1193},{"AShares":136022.1193,"BShares":0,"ROWNUM_":null,"changeReason":"79","changeReasonDesc":"股权激励股份限售期满","realDate":"2013-07-05","seq":5594115,"totalShares":136022.1193},{"AShares":135774.8456,"BShares":0,"ROWNUM_":null,"changeReason":"51","changeReasonDesc":"送股","realDate":"2013-06-13","seq":5561555,"totalShares":136022.1193},{"AShares":123431.6778,"BShares":0,"ROWNUM_":null,"changeReason":"51","changeReasonDesc":"送股","realDate":"2013-06-07","seq":5559623,"totalShares":123656.4721},{"AShares":123431.6778,"BShares":0,"ROWNUM_":null,"changeReason":"79","changeReasonDesc":"股权激励股份限售期满","realDate":"2012-07-05","seq":5112301,"totalShares":123656.4721},{"AShares":123206.8834,"BShares":0,"ROWNUM_":null,"changeReason":"51","changeReasonDesc":"送股","realDate":"2012-05-30","seq":5052780,"totalShares":123656.4721},{"AShares":112006.2576,"BShares":0,"ROWNUM_":null,"changeReason":"51","changeReasonDesc":"送股","realDate":"2012-05-29","seq":5050893,"totalShares":112414.9746},{"AShares":112006.2576,"BShares":0,"ROWNUM_":null,"changeReason":"78","changeReasonDesc":"股权激励新增股份","realDate":"2011-07-11","seq":4613651,"totalShares":112414.9746},{"AShares":111733.7796,"BShares":0,"ROWNUM_":null,"changeReason":"51","changeReasonDesc":"送股","realDate":"2011-04-27","seq":4511269,"totalShares":112414.9746},{"AShares":74489.1864,"BShares":0,"ROWNUM_":null,"changeReason":"78","changeReasonDesc":"股权激励新增股份","realDate":"2010-07-30","seq":4178665,"totalShares":74943.3164},{"AShares":74489.1864,"BShares":0,"ROWNUM_":null,"changeReason":"51","changeReasonDesc":"送股","realDate":"2010-03-18","seq":4001485,"totalShares":74489.1864},{"AShares":62074.322,"BShares":0,"ROWNUM_":null,"changeReason":"74","changeReasonDesc":"股权分置股份限售期满","realDate":"2009-06-22","seq":3659408,"totalShares":62074.322},{"AShares":42490.4752,"BShares":0,"ROWNUM_":null,"changeReason":"51","changeReasonDesc":"送股","realDate":"2009-05-04","seq":3592408,"totalShares":62074.322},{"AShares":35408.7293,"BShares":0,"ROWNUM_":null,"changeReason":"74","changeReasonDesc":"股权分置股份限售期满","realDate":"2008-06-20","seq":3200372,"totalShares":51728.6016},{"AShares":29970.8683,"BShares":0,"ROWNUM_":null,"changeReason":"51","changeReasonDesc":"送股","realDate":"2008-04-14","seq":3115989,"totalShares":51728.6016},{"AShares":24975.7236,"BShares":0,"ROWNUM_":null,"changeReason":"74","changeReasonDesc":"股权分置股份限售期满","realDate":"2007-06-20","seq":2727761,"totalShares":43107.168},{"AShares":16224,"BShares":0,"ROWNUM_":null,"changeReason":"51","changeReasonDesc":"送股","realDate":"2007-04-03","seq":2623471,"totalShares":43107.168},{"AShares":12480,"BShares":0,"ROWNUM_":null,"changeReason":"51","changeReasonDesc":"送股","realDate":"2006-08-30","seq":2334073,"totalShares":33159.36},{"AShares":9600,"BShares":0,"ROWNUM_":null,"changeReason":"73","changeReasonDesc":"股权分置","realDate":"2006-06-20","seq":2233378,"totalShares":25507.2},{"AShares":7680,"BShares":0,"ROWNUM_":null,"changeReason":"51","changeReasonDesc":"送股","realDate":"2002-05-22","seq":477504,"totalShares":25507.2}],"endDate":null,"endPage":5,"objectResult":null,"pageCount":2,"pageNo":1,"pageSize":50,"searchDate":null,"sort":null,"startDate":null,"total":52},"result":[{"AShares":440391.5003,"BShares":0,"ROWNUM_":null,"changeReason":"80","changeReasonDesc":"股份注销","realDate":"2019-05-31","seq":9426478,"totalShares":442281.4197},{"AShares":440391.5003,"BShares":0,"ROWNUM_":null,"changeReason":"51","changeReasonDesc":"送股","realDate":"2019-03-29","seq":9281753,"totalShares":442303.4469},{"AShares":366992.9169,"BShares":0,"ROWNUM_":null,"changeReason":"51","changeReasonDesc":"送股","realDate":"2019-03-28","seq":9278793,"totalShares":368586.2057},{"AShares":366992.9169,"BShares":0,"ROWNUM_":null,"changeReason":"33","changeReasonDesc":"A股增发上市","realDate":"2019-01-31","seq":9150830,"totalShares":368586.2057},{"AShares":366992.9169,"BShares":0,"ROWNUM_":null,"changeReason":"79","changeReasonDesc":"股权激励股份限售期满","realDate":"2019-01-22","seq":9124548,"totalShares":368207.7149},{"AShares":366194.7949,"BShares":0,"ROWNUM_":null,"changeReason":"80","changeReasonDesc":"股份注销","realDate":"2018-11-06","seq":8926864,"totalShares":368207.7149},{"AShares":366194.7949,"BShares":0,"ROWNUM_":null,"changeReason":"51","changeReasonDesc":"送股","realDate":"2018-05-31","seq":8552965,"totalShares":368244.2449},{"AShares":281688.3038,"BShares":0,"ROWNUM_":null,"changeReason":"51","changeReasonDesc":"送股","realDate":"2018-05-30","seq":8550085,"totalShares":283264.8038},{"AShares":281688.3038,"BShares":0,"ROWNUM_":null,"changeReason":"79","changeReasonDesc":"股权激励股份限售期满","realDate":"2018-01-31","seq":8278658,"totalShares":283264.8038},{"AShares":281630.8521,"BShares":0,"ROWNUM_":null,"changeReason":"33","changeReasonDesc":"A股增发上市","realDate":"2018-01-24","seq":8261788,"totalShares":283264.8038},{"AShares":281630.8521,"BShares":0,"ROWNUM_":null,"changeReason":"80","changeReasonDesc":"股份注销","realDate":"2017-09-25","seq":7987444,"totalShares":281688.3038},{"AShares":281630.8521,"BShares":0,"ROWNUM_":null,"changeReason":"79","changeReasonDesc":"股权激励股份限售期满","realDate":"2017-07-25","seq":7856102,"totalShares":281688.9833},{"AShares":281228.4432,"BShares":0,"ROWNUM_":null,"changeReason":"80","changeReasonDesc":"股份注销","realDate":"2017-06-30","seq":7812664,"totalShares":281688.9833},{"AShares":281228.4432,"BShares":0,"ROWNUM_":null,"changeReason":"51","changeReasonDesc":"送股","realDate":"2017-06-01","seq":7760634,"totalShares":281695.1609},{"AShares":234357.036,"BShares":0,"ROWNUM_":null,"changeReason":"51","changeReasonDesc":"送股","realDate":"2017-05-31","seq":7758049,"totalShares":234745.9674},{"AShares":234357.036,"BShares":0,"ROWNUM_":null,"changeReason":"79","changeReasonDesc":"股权激励股份限售期满","realDate":"2017-01-16","seq":7530545,"totalShares":234745.9674},{"AShares":234309.1596,"BShares":0,"ROWNUM_":null,"changeReason":"80","changeReasonDesc":"股份注销","realDate":"2016-12-08","seq":7462972,"totalShares":234745.9674},{"AShares":234309.1596,"BShares":0,"ROWNUM_":null,"changeReason":"80","changeReasonDesc":"股份注销","realDate":"2016-10-28","seq":7379518,"totalShares":234752.6598},{"AShares":234309.1596,"BShares":0,"ROWNUM_":null,"changeReason":"79","changeReasonDesc":"股权激励股份限售期满","realDate":"2016-07-19","seq":7217393,"totalShares":234776.2891},{"AShares":233960.3311,"BShares":0,"ROWNUM_":null,"changeReason":"51","changeReasonDesc":"送股","realDate":"2016-06-17","seq":7171609,"totalShares":234776.2891},{"AShares":194966.9426,"BShares":0,"ROWNUM_":null,"changeReason":"51","changeReasonDesc":"送股","realDate":"2016-06-16","seq":7168269,"totalShares":195646.9076},{"AShares":194966.9426,"BShares":0,"ROWNUM_":null,"changeReason":"80","changeReasonDesc":"股份注销","realDate":"2016-01-25","seq":6949595,"totalShares":195646.9076},{"AShares":194966.9426,"BShares":0,"ROWNUM_":null,"changeReason":"79","changeReasonDesc":"股权激励股份限售期满","realDate":"2016-01-21","seq":6945194,"totalShares":195649.9106},{"AShares":194913.7466,"BShares":0,"ROWNUM_":null,"changeReason":"79","changeReasonDesc":"股权激励股份限售期满","realDate":"2015-07-17","seq":6665880,"totalShares":195649.9106},{"AShares":194511.6306,"BShares":0,"ROWNUM_":null,"changeReason":"51","changeReasonDesc":"送股","realDate":"2015-06-16","seq":6617476,"totalShares":195649.9106},{"AShares":149624.3312,"BShares":0,"ROWNUM_":null,"changeReason":"51","changeReasonDesc":"送股","realDate":"2015-06-15","seq":6615316,"totalShares":150499.9312},{"AShares":149624.3312,"BShares":0,"ROWNUM_":null,"changeReason":"80","changeReasonDesc":"股份注销","realDate":"2015-05-28","seq":6589798,"totalShares":150499.9312},{"AShares":149624.3312,"BShares":0,"ROWNUM_":null,"changeReason":"33","changeReasonDesc":"A股增发上市","realDate":"2015-01-20","seq":6417241,"totalShares":150501.5812},{"AShares":149624.3312,"BShares":0,"ROWNUM_":null,"changeReason":"33","changeReasonDesc":"A股增发上市","realDate":"2014-07-21","seq":6149281,"totalShares":150399.2812},{"AShares":149624.3312,"BShares":0,"ROWNUM_":null,"changeReason":"51","changeReasonDesc":"送股","realDate":"2014-05-16","seq":6047433,"totalShares":149624.3312},{"AShares":136022.1193,"BShares":0,"ROWNUM_":null,"changeReason":"51","changeReasonDesc":"送股","realDate":"2014-05-15","seq":6045513,"totalShares":136022.1193},{"AShares":136022.1193,"BShares":0,"ROWNUM_":null,"changeReason":"79","changeReasonDesc":"股权激励股份限售期满","realDate":"2013-07-05","seq":5594115,"totalShares":136022.1193},{"AShares":135774.8456,"BShares":0,"ROWNUM_":null,"changeReason":"51","changeReasonDesc":"送股","realDate":"2013-06-13","seq":5561555,"totalShares":136022.1193},{"AShares":123431.6778,"BShares":0,"ROWNUM_":null,"changeReason":"51","changeReasonDesc":"送股","realDate":"2013-06-07","seq":5559623,"totalShares":123656.4721},{"AShares":123431.6778,"BShares":0,"ROWNUM_":null,"changeReason":"79","changeReasonDesc":"股权激励股份限售期满","realDate":"2012-07-05","seq":5112301,"totalShares":123656.4721},{"AShares":123206.8834,"BShares":0,"ROWNUM_":null,"changeReason":"51","changeReasonDesc":"送股","realDate":"2012-05-30","seq":5052780,"totalShares":123656.4721},{"AShares":112006.2576,"BShares":0,"ROWNUM_":null,"changeReason":"51","changeReasonDesc":"送股","realDate":"2012-05-29","seq":5050893,"totalShares":112414.9746},{"AShares":112006.2576,"BShares":0,"ROWNUM_":null,"changeReason":"78","changeReasonDesc":"股权激励新增股份","realDate":"2011-07-11","seq":4613651,"totalShares":112414.9746},{"AShares":111733.7796,"BShares":0,"ROWNUM_":null,"changeReason":"51","changeReasonDesc":"送股","realDate":"2011-04-27","seq":4511269,"totalShares":112414.9746},{"AShares":74489.1864,"BShares":0,"ROWNUM_":null,"changeReason":"78","changeReasonDesc":"股权激励新增股份","realDate":"2010-07-30","seq":4178665,"totalShares":74943.3164},{"AShares":74489.1864,"BShares":0,"ROWNUM_":null,"changeReason":"51","changeReasonDesc":"送股","realDate":"2010-03-18","seq":4001485,"totalShares":74489.1864},{"AShares":62074.322,"BShares":0,"ROWNUM_":null,"changeReason":"74","changeReasonDesc":"股权分置股份限售期满","realDate":"2009-06-22","seq":3659408,"totalShares":62074.322},{"AShares":42490.4752,"BShares":0,"ROWNUM_":null,"changeReason":"51","changeReasonDesc":"送股","realDate":"2009-05-04","seq":3592408,"totalShares":62074.322},{"AShares":35408.7293,"BShares":0,"ROWNUM_":null,"changeReason":"74","changeReasonDesc":"股权分置股份限售期满","realDate":"2008-06-20","seq":3200372,"totalShares":51728.6016},{"AShares":29970.8683,"BShares":0,"ROWNUM_":null,"changeReason":"51","changeReasonDesc":"送股","realDate":"2008-04-14","seq":3115989,"totalShares":51728.6016},{"AShares":24975.7236,"BShares":0,"ROWNUM_":null,"changeReason":"74","changeReasonDesc":"股权分置股份限售期满","realDate":"2007-06-20","seq":2727761,"totalShares":43107.168},{"AShares":16224,"BShares":0,"ROWNUM_":null,"changeReason":"51","changeReasonDesc":"送股","realDate":"2007-04-03","seq":2623471,"totalShares":43107.168},{"AShares":12480,"BShares":0,"ROWNUM_":null,"changeReason":"51","changeReasonDesc":"送股","realDate":"2006-08-30","seq":2334073,"totalShares":33159.36},{"AShares":9600,"BShares":0,"ROWNUM_":null,"changeReason":"73","changeReasonDesc":"股权分置","realDate":"2006-06-20","seq":2233378,"totalShares":25507.2},{"AShares":7680,"BShares":0,"ROWNUM_":null,"changeReason":"51","changeReasonDesc":"送股","realDate":"2002-05-22","seq":477504,"totalShares":25507.2}],"seq":""}