{"companyCode":"600588","isPagination":"true","jsonCallBack":"","pageHelp":{"beginPage":1,"cacheSize":1,"data":[{"AShares":189979.562,"BShares":0,"ROWNUM_":null,"changeReason":"33","changeReasonDesc":"A股增发上市","realDate":"2018-11-19","seq":8960321,"totalShares":191590.4477},{"AShares":190023.772,"BShares":0,"ROWNUM_":null,"changeReason":"33","changeReasonDesc":"A股增发上市","realDate":"2018-09-27","seq":8842598,"totalShares":191590.4477},{"AShares":188296.4082,"BShares":0,"ROWNUM_":null,"changeReason":"79","changeReasonDesc":"股权激励股份限售期满","realDate":"2018-08-06","seq":8714082,"totalShares":189959.4096},{"AShares":187335.1425,"BShares":0,"ROWNUM_":null,"changeReason":"80","changeReasonDesc":"股份注销","realDate":"2018-08-03","seq":8709757,"totalShares":189863.0839},{"AShares":187335.1425,"BShares":0,"ROWNUM_":null,"changeReason":"51","changeReasonDesc":"送股","realDate":"2018-05-03","seq":8479927,"totalShares":189959.4096},{"AShares":144103.9558,"BShares":0,"ROWNUM_":null,"changeReason":"51","changeReasonDesc":"送股","realDate":"2018-05-02","seq":8475627,"totalShares":146122.6228},{"AShares":144103.9558,"BShares":0,"ROWNUM_":null,"changeReason":"80","changeReasonDesc":"股份注销","realDate":"2018-04-17","seq":8441484,"totalShares":146122.6228},{"AShares":144103.9558,"BShares":0,"ROWNUM_":null,"changeReason":"61","changeReasonDesc":"其他股本变动","realDate":"2017-07-19","seq":7846908,"totalShares":146421.7811},{"AShares":146036.599,"BShares":0,"ROWNUM_":null,"changeReason":"80","changeReasonDesc":"股份注销","realDate":"2017-03-09","seq":7612440,"totalShares":146421.7811},{"AShares":146036.599,"BShares":0,"ROWNUM_":null,"changeReason":"77","changeReasonDesc":"有限售条件流通股上市","realDate":"2016-08-22","seq":7280168,"totalShares":146429.3443},{"AShares":140688.1388,"BShares":0,"ROWNUM_":null,"changeReason":"33","changeReasonDesc":"A股增发上市","realDate":"2016-03-29","seq":7038223,"totalShares":146429.3443},{"AShares":140669.4548,"BShares":0,"ROWNUM_":null,"changeReason":"80","changeReasonDesc":"股份注销","realDate":"2016-03-07","seq":6999880,"totalShares":146410.6603},{"AShares":140669.4548,"BShares":0,"ROWNUM_":null,"changeReason":"33","changeReasonDesc":"A股增发上市","realDate":"2016-02-05","seq":6970397,"totalShares":146468.832},{"AShares":140159.8278,"BShares":0,"ROWNUM_":null,"changeReason":"79","changeReasonDesc":"股权激励股份限售期满","realDate":"2015-11-12","seq":6835791,"totalShares":145959.205},{"AShares":139750.986,"BShares":0,"ROWNUM_":null,"changeReason":"33","changeReasonDesc":"A股增发上市","realDate":"2015-10-14","seq":6790511,"totalShares":145959.205},{"AShares":139710.522,"BShares":0,"ROWNUM_":null,"changeReason":"51","changeReasonDesc":"送股","realDate":"2015-05-04","seq":6554280,"totalShares":140570.2808},{"AShares":116425.435,"BShares":0,"ROWNUM_":null,"changeReason":"51","changeReasonDesc":"送股","realDate":"2015-04-30","seq":6553222,"totalShares":117141.9007},{"AShares":116425.435,"BShares":0,"ROWNUM_":null,"changeReason":"33","changeReasonDesc":"A股增发上市","realDate":"2015-01-30","seq":6434325,"totalShares":117141.9007},{"AShares":115912.2294,"BShares":0,"ROWNUM_":null,"changeReason":"33","changeReasonDesc":"A股增发上市","realDate":"2015-01-21","seq":6419278,"totalShares":116628.6951},{"AShares":115912.2294,"BShares":0,"ROWNUM_":null,"changeReason":"80","changeReasonDesc":"股份注销","realDate":"2014-11-27","seq":6342804,"totalShares":116465.5418},{"AShares":115912.2294,"BShares":0,"ROWNUM_":null,"changeReason":"79","changeReasonDesc":"股权激励股份限售期满","realDate":"2014-11-12","seq":6319103,"totalShares":116540.956},{"AShares":115109.5486,"BShares":0,"ROWNUM_":null,"changeReason":"51","changeReasonDesc":"送股","realDate":"2014-04-24","seq":6015798,"totalShares":116540.956},{"AShares":95924.6238,"BShares":0,"ROWNUM_":null,"changeReason":"51","changeReasonDesc":"送股","realDate":"2014-04-23","seq":6013878,"totalShares":97117.4633},{"AShares":95924.6238,"BShares":0,"ROWNUM_":null,"changeReason":"33","changeReasonDesc":"A股增发上市","realDate":"2014-03-14","seq":5952437,"totalShares":97117.4633},{"AShares":95924.6238,"BShares":0,"ROWNUM_":null,"changeReason":"80","changeReasonDesc":"股份注销","realDate":"2013-01-11","seq":5371542,"totalShares":95924.6238},{"AShares":97908.404,"BShares":0,"ROWNUM_":null,"changeReason":"51","changeReasonDesc":"送股","realDate":"2012-04-20","seq":4989815,"totalShares":97908.404},{"AShares":81590.3367,"BShares":0,"ROWNUM_":null,"changeReason":"51","changeReasonDesc":"送股","realDate":"2012-04-19","seq":4987945,"totalShares":81590.3367},{"AShares":81590.3367,"BShares":0,"ROWNUM_":null,"changeReason":"78","changeReasonDesc":"股权激励新增股份","realDate":"2011-09-29","seq":4729801,"totalShares":81590.3367},{"AShares":80513.7556,"BShares":0,"ROWNUM_":null,"changeReason":"61","changeReasonDesc":"其他股本变动","realDate":"2011-09-19","seq":4713899,"totalShares":81590.3367},{"AShares":80513.7556,"BShares":0,"ROWNUM_":null,"changeReason":"61","changeReasonDesc":"其他股本变动","realDate":"2011-03-25","seq":4470351,"totalShares":81603.0819},{"AShares":80244.8917,"BShares":0,"ROWNUM_":null,"changeReason":"78","changeReasonDesc":"股权激励新增股份","realDate":"2010-09-29","seq":4247967,"totalShares":81613.1907},{"AShares":78864.6031,"BShares":0,"ROWNUM_":null,"changeReason":"78","changeReasonDesc":"股权激励新增股份","realDate":"2010-09-27","seq":4244411,"totalShares":81613.1907},{"AShares":78595.7392,"BShares":0,"ROWNUM_":null,"changeReason":"61","changeReasonDesc":"其他股本变动","realDate":"2010-09-09","seq":4230221,"totalShares":81613.1907},{"AShares":78595.7392,"BShares":0,"ROWNUM_":null,"changeReason":"61","changeReasonDesc":"其他股本变动","realDate":"2010-06-25","seq":4132664,"totalShares":81616.8604},{"AShares":78595.7392,"BShares":0,"ROWNUM_":null,"changeReason":"51","changeReasonDesc":"送股","realDate":"2010-05-04","seq":4065785,"totalShares":81621.6505},{"AShares":60458.2609,"BShares":0,"ROWNUM_":null,"changeReason":"74","changeReasonDesc":"股权分置股份限售期满","realDate":"2010-03-01","seq":3976919,"totalShares":62785.885},{"AShares":48046.9009,"BShares":0,"ROWNUM_":null,"changeReason":"78","changeReasonDesc":"股权激励新增股份","realDate":"2009-12-22","seq":3888249,"totalShares":62785.885},{"AShares":48046.9009,"BShares":0,"ROWNUM_":null,"changeReason":"78","changeReasonDesc":"股权激励新增股份","realDate":"2009-09-28","seq":3786929,"totalShares":60666.1868},{"AShares":47735.012,"BShares":0,"ROWNUM_":null,"changeReason":"61","changeReasonDesc":"其他股本变动","realDate":"2009-09-16","seq":3772075,"totalShares":60666.1868},{"AShares":47735.012,"BShares":0,"ROWNUM_":null,"changeReason":"78","changeReasonDesc":"股权激励新增股份","realDate":"2009-08-10","seq":3719670,"totalShares":60666.8068},{"AShares":47040.0216,"BShares":0,"ROWNUM_":null,"changeReason":"61","changeReasonDesc":"其他股本变动","realDate":"2009-08-04","seq":3713544,"totalShares":60666.8068},{"AShares":47040.0216,"BShares":0,"ROWNUM_":null,"changeReason":"51","changeReasonDesc":"送股","realDate":"2009-04-30","seq":3589864,"totalShares":60668.2468},{"AShares":36184.632,"BShares":0,"ROWNUM_":null,"changeReason":"74","changeReasonDesc":"股权分置股份限售期满","realDate":"2009-03-02","seq":3513276,"totalShares":46668.3575},{"AShares":33657.432,"BShares":0,"ROWNUM_":null,"changeReason":"78","changeReasonDesc":"股权激励新增股份","realDate":"2008-12-30","seq":3442072,"totalShares":46668.3575},{"AShares":33657.432,"BShares":0,"ROWNUM_":null,"changeReason":"61","changeReasonDesc":"其他股本变动","realDate":"2008-10-14","seq":3340353,"totalShares":46267.72},{"AShares":33657.432,"BShares":0,"ROWNUM_":null,"changeReason":"78","changeReasonDesc":"股权激励新增股份","realDate":"2008-08-08","seq":3265555,"totalShares":46272.76},{"AShares":32853.6,"BShares":0,"ROWNUM_":null,"changeReason":"61","changeReasonDesc":"其他股本变动","realDate":"2008-05-07","seq":3143952,"totalShares":46272.76},{"AShares":32853.6,"BShares":0,"ROWNUM_":null,"changeReason":"51","changeReasonDesc":"送股","realDate":"2008-04-14","seq":3116069,"totalShares":46274.04},{"AShares":16426.8,"BShares":0,"ROWNUM_":null,"changeReason":"74","changeReasonDesc":"股权分置股份限售期满","realDate":"2008-02-28","seq":3054391,"totalShares":23137.92},{"AShares":13618.8,"BShares":0,"ROWNUM_":null,"changeReason":"61","changeReasonDesc":"其他股本变动","realDate":"2007-12-17","seq":2965489,"totalShares":23137.92}],"endDate":null,"endPage":5,"objectResult":null,"pageCount":2,"pageNo":1,"pageSize":50,"searchDate":null,"sort":null,"startDate":null,"total":57},"result":[{"AShares":189979.562,"BShares":0,"ROWNUM_":null,"changeReason":"33","changeReasonDesc":"A股增发上市","realDate":"2018-11-19","seq":8960321,"totalShares":191590.4477},{"AShares":190023.772,"BShares":0,"ROWNUM_":null,"changeReason":"33","changeReasonDesc":"A股增发上市","realDate":"2018-09-27","seq":8842598,"totalShares":191590.4477},{"AShares":188296.4082,"BShares":0,"ROWNUM_":null,"changeReason":"79","changeReasonDesc":"股权激励股份限售期满","realDate":"2018-08-06","seq":8714082,"totalShares":189959.4096},{"AShares":187335.1425,"BShares":0,"ROWNUM_":null,"changeReason":"80","changeReasonDesc":"股份注销","realDate":"2018-08-03","seq":8709757,"totalShares":189863.0839},{"AShares":187335.1425,"BShares":0,"ROWNUM_":null,"changeReason":"51","changeReasonDesc":"送股","realDate":"2018-05-03","seq":8479927,"totalShares":189959.4096},{"AShares":144103.9558,"BShares":0,"ROWNUM_":null,"changeReason":"51","changeReasonDesc":"送股","realDate":"2018-05-02","seq":8475627,"totalShares":146122.6228},{"AShares":144103.9558,"BShares":0,"ROWNUM_":null,"changeReason":"80","changeReasonDesc":"股份注销","realDate":"2018-04-17","seq":8441484,"totalShares":146122.6228},{"AShares":144103.9558,"BShares":0,"ROWNUM_":null,"changeReason":"61","changeReasonDesc":"其他股本变动","realDate":"2017-07-19","seq":7846908,"totalShares":146421.7811},{"AShares":146036.599,"BShares":0,"ROWNUM_":null,"changeReason":"80","changeReasonDesc":"股份注销","realDate":"2017-03-09","seq":7612440,"totalShares":146421.7811},{"AShares":146036.599,"BShares":0,"ROWNUM_":null,"changeReason":"77","changeReasonDesc":"有限售条件流通股上市","realDate":"2016-08-22","seq":7280168,"totalShares":146429.3443},{"AShares":140688.1388,"BShares":0,"ROWNUM_":null,"changeReason":"33","changeReasonDesc":"A股增发上市","realDate":"2016-03-29","seq":7038223,"totalShares":146429.3443},{"AShares":140669.4548,"BShares":0,"ROWNUM_":null,"changeReason":"80","changeReasonDesc":"股份注销","realDate":"2016-03-07","seq":6999880,"totalShares":146410.6603},{"AShares":140669.4548,"BShares":0,"ROWNUM_":null,"changeReason":"33","changeReasonDesc":"A股增发上市","realDate":"2016-02-05","seq":6970397,"totalShares":146468.832},{"AShares":140159.8278,"BShares":0,"ROWNUM_":null,"changeReason":"79","changeReasonDesc":"股权激励股份限售期满","realDate":"2015-11-12","seq":6835791,"totalShares":145959.205},{"AShares":139750.986,"BShares":0,"ROWNUM_":null,"changeReason":"33","changeReasonDesc":"A股增发上市","realDate":"2015-10-14","seq":6790511,"totalShares":145959.205},{"AShares":139710.522,"BShares":0,"ROWNUM_":null,"changeReason":"51","changeReasonDesc":"送股","realDate":"2015-05-04","seq":6554280,"totalShares":140570.2808},{"AShares":116425.435,"BShares":0,"ROWNUM_":null,"changeReason":"51","changeReasonDesc":"送股","realDate":"2015-04-30","seq":6553222,"totalShares":117141.9007},{"AShares":116425.435,"BShares":0,"ROWNUM_":null,"changeReason":"33","changeReasonDesc":"A股增发上市","realDate":"2015-01-30","seq":6434325,"totalShares":117141.9007},{"AShares":115912.2294,"BShares":0,"ROWNUM_":null,"changeReason":"33","changeReasonDesc":"A股增发上市","realDate":"2015-01-21","seq":6419278,"totalShares":116628.6951},{"AShares":115912.2294,"BShares":0,"ROWNUM_":null,"changeReason":"80","changeReasonDesc":"股份注销","realDate":"2014-11-27","seq":6342804,"totalShares":116465.5418},{"AShares":115912.2294,"BShares":0,"ROWNUM_":null,"changeReason":"79","changeReasonDesc":"股权激励股份限售期满","realDate":"2014-11-12","seq":6319103,"totalShares":116540.956},{"AShares":115109.5486,"BShares":0,"ROWNUM_":null,"changeReason":"51","changeReasonDesc":"送股","realDate":"2014-04-24","seq":6015798,"totalShares":116540.956},{"AShares":95924.6238,"BShares":0,"ROWNUM_":null,"changeReason":"51","changeReasonDesc":"送股","realDate":"2014-04-23","seq":6013878,"totalShares":97117.4633},{"AShares":95924.6238,"BShares":0,"ROWNUM_":null,"changeReason":"33","changeReasonDesc":"A股增发上市","realDate":"2014-03-14","seq":5952437,"totalShares":97117.4633},{"AShares":95924.6238,"BShares":0,"ROWNUM_":null,"changeReason":"80","changeReasonDesc":"股份注销","realDate":"2013-01-11","seq":5371542,"totalShares":95924.6238},{"AShares":97908.404,"BShares":0,"ROWNUM_":null,"changeReason":"51","changeReasonDesc":"送股","realDate":"2012-04-20","seq":4989815,"totalShares":97908.404},{"AShares":81590.3367,"BShares":0,"ROWNUM_":null,"changeReason":"51","changeReasonDesc":"送股","realDate":"2012-04-19","seq":4987945,"totalShares":81590.3367},{"AShares":81590.3367,"BShares":0,"ROWNUM_":null,"changeReason":"78","changeReasonDesc":"股权激励新增股份","realDate":"2011-09-29","seq":4729801,"totalShares":81590.3367},{"AShares":80513.7556,"BShares":0,"ROWNUM_":null,"changeReason":"61","changeReasonDesc":"其他股本变动","realDate":"2011-09-19","seq":4713899,"totalShares":81590.3367},{"AShares":80513.7556,"BShares":0,"ROWNUM_":null,"changeReason":"61","changeReasonDesc":"其他股本变动","realDate":"2011-03-25","seq":4470351,"totalShares":81603.0819},{"AShares":80244.8917,"BShares":0,"ROWNUM_":null,"changeReason":"78","changeReasonDesc":"股权激励新增股份","realDate":"2010-09-29","seq":4247967,"totalShares":81613.1907},{"AShares":78864.6031,"BShares":0,"ROWNUM_":null,"changeReason":"78","changeReasonDesc":"股权激励新增股份","realDate":"2010-09-27","seq":4244411,"totalShares":81613.1907},{"AShares":78595.7392,"BShares":0,"ROWNUM_":null,"changeReason":"61","changeReasonDesc":"其他股本变动","realDate":"2010-09-09","seq":4230221,"totalShares":81613.1907},{"AShares":78595.7392,"BShares":0,"ROWNUM_":null,"changeReason":"61","changeReasonDesc":"其他股本变动","realDate":"2010-06-25","seq":4132664,"totalShares":81616.8604},{"AShares":78595.7392,"BShares":0,"ROWNUM_":null,"changeReason":"51","changeReasonDesc":"送股","realDate":"2010-05-04","seq":4065785,"totalShares":81621.6505},{"AShares":60458.2609,"BShares":0,"ROWNUM_":null,"changeReason":"74","changeReasonDesc":"股权分置股份限售期满","realDate":"2010-03-01","seq":3976919,"totalShares":62785.885},{"AShares":48046.9009,"BShares":0,"ROWNUM_":null,"changeReason":"78","changeReasonDesc":"股权激励新增股份","realDate":"2009-12-22","seq":3888249,"totalShares":62785.885},{"AShares":48046.9009,"BShares":0,"ROWNUM_":null,"changeReason":"78","changeReasonDesc":"股权激励新增股份","realDate":"2009-09-28","seq":3786929,"totalShares":60666.1868},{"AShares":47735.012,"BShares":0,"ROWNUM_":null,"changeReason":"61","changeReasonDesc":"其他股本变动","realDate":"2009-09-16","seq":3772075,"totalShares":60666.1868},{"AShares":47735.012,"BShares":0,"ROWNUM_":null,"changeReason":"78","changeReasonDesc":"股权激励新增股份","realDate":"2009-08-10","seq":3719670,"totalShares":60666.8068},{"AShares":47040.0216,"BShares":0,"ROWNUM_":null,"changeReason":"61","changeReasonDesc":"其他股本变动","realDate":"2009-08-04","seq":3713544,"totalShares":60666.8068},{"AShares":47040.0216,"BShares":0,"ROWNUM_":null,"changeReason":"51","changeReasonDesc":"送股","realDate":"2009-04-30","seq":3589864,"totalShares":60668.2468},{"AShares":36184.632,"BShares":0,"ROWNUM_":null,"changeReason":"74","changeReasonDesc":"股权分置股份限售期满","realDate":"2009-03-02","seq":3513276,"totalShares":46668.3575},{"AShares":33657.432,"BShares":0,"ROWNUM_":null,"changeReason":"78","changeReasonDesc":"股权激励新增股份","realDate":"2008-12-30","seq":3442072,"totalShares":46668.3575},{"AShares":33657.432,"BShares":0,"ROWNUM_":null,"changeReason":"61","changeReasonDesc":"其他股本变动","realDate":"2008-10-14","seq":3340353,"totalShares":46267.72},{"AShares":33657.432,"BShares":0,"ROWNUM_":null,"changeReason":"78","changeReasonDesc":"股权激励新增股份","realDate":"2008-08-08","seq":3265555,"totalShares":46272.76},{"AShares":32853.6,"BShares":0,"ROWNUM_":null,"changeReason":"61","changeReasonDesc":"其他股本变动","realDate":"2008-05-07","seq":3143952,"totalShares":46272.76},{"AShares":32853.6,"BShares":0,"ROWNUM_":null,"changeReason":"51","changeReasonDesc":"送股","realDate":"2008-04-14","seq":3116069,"totalShares":46274.04},{"AShares":16426.8,"BShares":0,"ROWNUM_":null,"changeReason":"74","changeReasonDesc":"股权分置股份限售期满","realDate":"2008-02-28","seq":3054391,"totalShares":23137.92},{"AShares":13618.8,"BShares":0,"ROWNUM_":null,"changeReason":"61","changeReasonDesc":"其他股本变动","realDate":"2007-12-17","seq":2965489,"totalShares":23137.92}],"seq":""}